{
    "type": "patchouli:shapeless_book_recipe",
    "ingredients": [
        {
            "tag": "cobblemon:apricorns"
        },
        {
            "item": "minecraft:book"
        }
    ],
    "book": "cobblepedia:cobblepedia"
}
