{
    "components": [
        {
            "type": "patchouli:text",
            "text": "An $(l)#item->iname#/$ is a $(l:mutated_berry)mutated berry$().",
            "x": 0,
            "y": 40
        }
    ],
    "include": [
        {
            "template": "cobblepedia:spotlight",
            "as": "spotlight",
            "using": {
                "item": "#item"
            }
        }
    ]
}