{
    "name": "block.cobblemon.apricorn_pressure_plate",
    "category": "cobblepedia:blocks",
"read_by_default": true,
    "icon": "cobblemon:apricorn_pressure_plate",
    "pages": [
        {
            "type": "patchouli:spotlight",
            "item": "cobblemon:apricorn_pressure_plate",
            "title": "block.cobblemon.apricorn_pressure_plate",
            "text": "book.cobblepedia.entries.apricorn_pressure_plate.text"
        },
        {
            "type": "patchouli:crafting",
            "recipe": "cobblemon:apricorn_pressure_plate",
            "title": "book.cobblepedia.pages.crafting",
            "text": "book.cobblepedia.entries.apricorn_pressure_plate.crafting"
        }
    ]
}
