{
    "name": "item.cobblemon.dragon_fang",
    "category": "cobblepedia:items",
"read_by_default": true,
    "icon": "cobblemon:dragon_fang",
    "pages": [
        {
            "type": "patchouli:spotlight",
            "item": "cobblemon:dragon_fang",
            "text": "book.cobblepedia.entries.dragon_fang.text"
        },
        {
            "type": "patchouli:crafting",
            "recipe": "cobblemon:dragon_fang",
            "title": "book.cobblepedia.pages.crafting"
        },
        {
            "type": "cobblepedia:dropping",
            "title": "book.cobblepedia.pages.dropping",
            "drop_item": "cobblemon:dragon_fang",
            "pokemon": "cobblemon:gible",
            "rate": "2.5",
            "drop_item2": "cobblemon:dragon_fang",
            "pokemon2": "cobblemon:gabite",
            "rate2": "5",
            "drop_item3": "cobblemon:dragon_fang",
            "pokemon3": "cobblemon:garchomp",
            "rate3": "10"
        },
        {
            "type": "patchouli:text",
            "title": "book.cobblepedia.pages.holding",
            "text": "book.cobblepedia.entries.dragon_fang.holding"
        }
    ]
}
