{
    "name": "book.cobblepedia.entries.held_items_list",
    "category": "cobblepedia:held_items",
    "icon": "cobblemon:assault_vest",
    "priority": true,
    "pages": [
        {
            "type": "patchouli:relations",
            "title": "book.cobblepedia.entries.held_items_list",
            "entries": [
                "cobblepedia:assault_vest",
                "cobblepedia:big_root",
                "cobblepedia:black_sludge",
                "cobblepedia:choice_items",
                "cobblepedia:deep_sea_scale",
                "cobblepedia:deep_sea_tooth",
                "cobblepedia:exp_share",
                "cobblepedia:focus_band",
                "cobblepedia:heavy_duty_boots",
                "cobblepedia:kings_rock",
                "cobblepedia:leftovers",
                "cobblepedia:light_clay"
            ]
        },
        {
            "type": "patchouli:relations",
            "title": "book.cobblepedia.entries.held_items_list",
            "entries": [
                "cobblepedia:lucky_egg",
                "cobblepedia:muscle_band",
                "cobblepedia:quick_claw",
                "cobblepedia:razor_claw",
                "cobblepedia:razor_fang",
                "cobblepedia:rocky_helmet",
                "cobblepedia:safety_goggles",
                "cobblepedia:wise_glasses",
                "cobblepedia:type_boosting_items",
                "cobblepedia:berry_juice",
                "cobblepedia:herb",
                "cobblepedia:power_item"
            ]
        }
    ]
}
