{
    "name": "item.cobblemon.magnet",
    "category": "cobblepedia:items",
"read_by_default": true,
    "icon": "cobblemon:magnet",
    "pages": [
        {
            "type": "patchouli:spotlight",
            "item": "cobblemon:magnet",
            "text": "book.cobblepedia.entries.magnet.text"
        },
        {
            "type": "patchouli:crafting",
            "recipe": "cobblemon:magnet",
            "title": "book.cobblepedia.pages.crafting"
        },
        {
            "type": "cobblepedia:dropping",
            "title": "book.cobblepedia.pages.dropping",
            "drop_item": "cobblemon:magnet",
            "pokemon": "cobblemon:magnemite",
            "rate": "2.5",
            "drop_item2": "cobblemon:magnet",
            "pokemon2": "cobblemon:magneton",
            "rate2": "5",
            "drop_item3": "cobblemon:magnet",
            "pokemon3": "cobblemon:plusle",
            "rate3": "5",
            "drop_item4": "cobblemon:magnet",
            "pokemon4": "cobblemon:minun",
            "rate4": "5",
            "drop_item5": "cobblemon:magnet",
            "pokemon5": "cobblemon:magnezone",
            "rate5": "10"
        },
        {
            "type": "patchouli:text",
            "title": "book.cobblepedia.pages.holding",
            "text": "book.cobblepedia.entries.magnet.holding"
        }
    ]
}
