{
    "name": "item.cobblemon.mystic_water",
    "category": "cobblepedia:items",
"read_by_default": true,
    "icon": "cobblemon:mystic_water",
    "pages": [
        {
            "type": "patchouli:spotlight",
            "item": "cobblemon:mystic_water",
            "text": "book.cobblepedia.entries.mystic_water.text"
        },
        {
            "type": "patchouli:crafting",
            "recipe": "cobblemon:mystic_water",
            "title": "book.cobblepedia.pages.crafting"
        },
        {
            "type": "cobblepedia:dropping",
            "title": "book.cobblepedia.pages.dropping",
            "drop_item": "cobblemon:mystic_water",
            "pokemon": "cobblemon:squirtle",
            "rate": "5",
            "drop_item2": "cobblemon:mystic_water",
            "pokemon2": "cobblemon:wartortle",
            "rate2": "10",
            "drop_item3": "cobblemon:mystic_water",
            "pokemon3": "cobblemon:blastoise",
            "rate3": "20",
            "drop_item4": "cobblemon:mystic_water",
            "pokemon4": "cobblemon:psyduck",
            "rate4": "5",
            "drop_item5": "cobblemon:mystic_water",
            "pokemon5": "cobblemon:golduck",
            "rate5": "10",
            "drop_item6": "cobblemon:mystic_water",
            "pokemon6": "cobblemon:mudkip",
            "rate6": "5"
        },
        {
            "type": "cobblepedia:dropping",
            "title": "book.cobblepedia.pages.dropping",
            "drop_item": "cobblemon:mystic_water",
            "pokemon": "cobblemon:marshtomp",
            "rate": "10",
            "drop_item2": "cobblemon:mystic_water",
            "pokemon2": "cobblemon:swampert",
            "rate2": "20",
            "drop_item3": "cobblemon:mystic_water",
            "pokemon3": "cobblemon:piplup",
            "rate3": "5",
            "drop_item4": "cobblemon:mystic_water",
            "pokemon4": "cobblemon:prinplup",
            "rate4": "10",
            "drop_item5": "cobblemon:mystic_water",
            "pokemon5": "cobblemon:empoleon",
            "rate5": "20",
            "drop_item6": "cobblemon:mystic_water",
            "pokemon6": "cobblemon:oshawott",
            "rate6": "5"
        },
        {
            "type": "cobblepedia:dropping",
            "title": "book.cobblepedia.pages.dropping",
            "drop_item": "cobblemon:mystic_water",
            "pokemon": "cobblemon:dewott",
            "rate": "10",
            "drop_item2": "cobblemon:mystic_water",
            "pokemon2": "cobblemon:samurott",
            "rate2": "20",
            "drop_item3": "cobblemon:mystic_water",
            "pokemon3": "cobblemon:froakie",
            "rate3": "5",
            "drop_item4": "cobblemon:mystic_water",
            "pokemon4": "cobblemon:frogadier",
            "rate4": "10",
            "drop_item5": "cobblemon:mystic_water",
            "pokemon5": "cobblemon:greninja",
            "rate5": "20",
            "drop_item6": "cobblemon:mystic_water",
            "pokemon6": "cobblemon:popplio",
            "rate6": "20"
        },
        {
            "type": "cobblepedia:dropping",
            "title": "book.cobblepedia.pages.dropping",
            "drop_item": "cobblemon:mystic_water",
            "pokemon": "cobblemon:brionne",
            "rate": "10",
            "drop_item2": "cobblemon:mystic_water",
            "pokemon2": "cobblemon:primarina",
            "rate2": "20",
            "drop_item3": "cobblemon:mystic_water",
            "pokemon3": "cobblemon:sobble",
            "rate3": "5",
            "drop_item4": "cobblemon:mystic_water",
            "pokemon4": "cobblemon:drizzile",
            "rate4": "10",
            "drop_item5": "cobblemon:mystic_water",
            "pokemon5": "cobblemon:inteleon",
            "rate5": "20"
        },
        {
            "type": "patchouli:text",
            "title": "book.cobblepedia.pages.holding",
            "text": "book.cobblepedia.entries.mystic_water.holding"
        }
    ]
}
