{
    "name": "item.cobblemon.sandy_mulch",
    "category": "cobblepedia:items",
"read_by_default": true,
    "icon": "cobblemon:sandy_mulch",
    "pages": [
        {
            "type": "patchouli:spotlight",
            "item": "cobblemon:sandy_mulch",
            "text": "book.cobblepedia.entries.sandy_mulch.text"
        },
        {
            "type": "patchouli:crafting",
            "recipe": "cobblemon:sandy_mulch",
            "title": "book.cobblepedia.pages.crafting"
        }
    ]
}
