{
    "replace": false,
    "values": [
        "cobblemon:strawberry_sweet",
        "cobblemon:love_sweet",
        "cobblemon:berry_sweet",
        "cobblemon:clover_sweet",
        "cobblemon:flower_sweet",
        "cobblemon:star_sweet",
        "cobblemon:ribbon_sweet"
    ]
}